lab4/examples/systemverilog/dpi/openarray/transcript
# //  Questa Sim
# //  Version 10.4c win32 Jul 20 2015
# //
# //  Copyright 1991-2015 Mentor Graphics Corporation
# //  All Rights Reserved.
# //
# //  THIS WORK CONTAINS TRADE SECRET AND PROPRIETARY INFORMATION
# //  WHICH IS THE PROPERTY OF MENTOR GRAPHICS CORPORATION OR ITS
# //  LICENSORS AND IS SUBJECT TO LICENSE TERMS.
# //  THIS DOCUMENT CONTAINS TRADE SECRETS AND COMMERCIAL OR FINANCIAL
# //  INFORMATION THAT ARE PRIVILEGED, CONFIDENTIAL, AND EXEMPT FROM
# //  DISCLOSURE UNDER THE FREEDOM OF INFORMATION ACT, 5 U.S.C. SECTION 552.
# //  FURTHERMORE, THIS INFORMATION IS PROHIBITED FROM DISCLOSURE UNDER
# //  THE TRADE SECRETS ACT, 18 U.S.C. SECTION 1905.
# //
# vsim top 
# Start time: 23:40:58 on Jan 05,2021
# Loading C:/Users/Vladimir/AppData/Local/Temp\Vladimir@DESKTOP-R9P376I_dpi_20364\win32_gcc-4.2.1\export_tramp.dll
# ** Note: (vsim-8009) Loading existing optimized design _opt1
# 
# Loading sv_std.std
# Loading work.top(fast)
# Compiling C:/Users/Vladimir/AppData/Local/Temp\Vladimir@DESKTOP-R9P376I_dpi_20364\win32_gcc-4.2.1\exportwrapper.c
# Loading C:/Users/Vladimir/AppData/Local/Temp\Vladimir@DESKTOP-R9P376I_dpi_20364\win32_gcc-4.2.1\vsim_auto_compile.dll
add wave -position end  sim:/top/inp
# ** Warning: (vsim-WLF-5000) WLF file currently in use: vsim.wlf
# 
#           File in use by: Vladimir  Hostname: DESKTOP-R9P376I  ProcessID: 14772
# 
#           Attempting to use alternate WLF file "./wlftvx7q7x".
# ** Warning: (vsim-WLF-5001) Could not open WLF file: vsim.wlf
# 
#           Using alternate file: ./wlftvx7q7x
# 
add wave -position end  sim:/top/copied
run -all
# clone_struct_oarr: dim:1, incr:-1, size:10, left:11, right:20, low:11, high:20 
# clone_struct_oarr: '{'{x:1, y:9}, '{x:2, y:8}, '{x:3, y:7}, '{x:4, y:6}, '{x:5, y:5}, '{x:6, y:4}, '{x:7, y:3}, '{x:8, y:2}, '{x:9, y:1}, '{x:0, y:10}}
# clone_struct_oarr_memcpy: '{'{x:1, y:9}, '{x:2, y:8}, '{x:3, y:7}, '{x:4, y:6}, '{x:5, y:5}, '{x:6, y:4}, '{x:7, y:3}, '{x:8, y:2}, '{x:9, y:1}, '{x:0, y:10}}
# clone_struct_oarr_safe: '{'{x:1, y:9}, '{x:2, y:8}, '{x:3, y:7}, '{x:4, y:6}, '{x:5, y:5}, '{x:6, y:4}, '{x:7, y:3}, '{x:8, y:2}, '{x:9, y:1}, '{x:0, y:10}}
# clone_bitvec_oarr_by_elemptr: dim:1, incr:1, size:6, left:5, right:0, low:0, high:5 
# clone_bitvec_oarr_by_elemptr: '{8, 7, 6, 5, 4, 3}, expecting '{8, 7, 6, 5, 4, 3}
# clone_bitvec_oarr_by_elemval: '{8, 7, 6, 5, 4, 3}, expecting '{8, 7, 6, 5, 4, 3}
# clone_bitvec_2D_oarr_by_elemptr: dim:2, incr:1, size:6, left:5, right:0, low:0, high:5 
# clone_bitvec_2D_oarr_by_elemptr: dim:1, incr:1, size:8, left:7, right:0, low:0, high:7 
# clone_bitvec_2D_oarr_by_elemptr: '{8, 7, 6, 5, 4, 3}, expecting '{8, 7, 6, 5, 4, 3}
# clone_bitvec_2D_oarr_by_elemval: '{8, 7, 6, 5, 4, 3}, expecting '{8, 7, 6, 5, 4, 3}
# clone_bitvec_3D_oarr_by_elemptr: dim:3, incr:1, size:6, left:5, right:0, low:0, high:5 
# clone_bitvec_3D_oarr_by_elemptr: dim:2, incr:1, size:8, left:7, right:0, low:0, high:7 
# clone_bitvec_3D_oarr_by_elemptr: dim:1, incr:1, size:12, left:11, right:0, low:0, high:11 
# clone_bitvec_3D_oarr_by_elemptr: '{8, 7, 6, 5, 4, 3}, expecting '{8, 7, 6, 5, 4, 3}
# clone_bitvec_3D_oarr_by_elemval: '{8, 7, 6, 5, 4, 3}, expecting '{8, 7, 6, 5, 4, 3}
# clone_logicvec_oarr_by_elemptr: dim:1, incr:1, size:6, left:5, right:0, low:0, high:5 
# clone_logicvec_oarr_by_elemptr: '{8, 7, 6, 5, 4, 3}, expecting '{8, 7, 6, 5, 4, 3}
# clone_logicvec_oarr_by_elemval: '{8, 7, 6, 5, 4, 3}, expecting '{8, 7, 6, 5, 4, 3}
# clone_logicvec_2D_oarr_by_elemptr: dim:2, incr:1, size:6, left:5, right:0, low:0, high:5 
# clone_logicvec_2D_oarr_by_elemptr: dim:1, incr:1, size:8, left:7, right:0, low:0, high:7 
# clone_logicvec_2D_oarr_by_elemptr: '{8, 7, 6, 5, 4, 3}, expecting '{8, 7, 6, 5, 4, 3}
# clone_logicvec_2D_oarr_by_elemval: '{8, 7, 6, 5, 4, 3}, expecting '{8, 7, 6, 5, 4, 3}
# clone_logicvec_3D_oarr_by_elemptr: dim:3, incr:1, size:6, left:5, right:0, low:0, high:5 
# clone_logicvec_3D_oarr_by_elemptr: dim:2, incr:1, size:8, left:7, right:0, low:0, high:7 
# clone_logicvec_3D_oarr_by_elemptr: dim:1, incr:1, size:12, left:11, right:0, low:0, high:11 
# clone_logicvec_3D_oarr_by_elemptr: '{8, 7, 6, 5, 4, 3}, expecting '{8, 7, 6, 5, 4, 3}
# clone_logicvec_3D_oarr_by_elemval: '{8, 7, 6, 5, 4, 3}, expecting '{8, 7, 6, 5, 4, 3}
# clone_bit_oarr: dim:1, incr:1, size:6, left:5, right:0, low:0, high:5 
# clone_bit_oarr: '{1, 0, 1, 0, 1, 0}, expecting '{1, 0, 1, 0, 1, 0}
# clone_bit_2D_oarr: '{1, 0, 1, 0, 1, 0}, expecting '{1, 0, 1, 0, 1, 0}
# clone_bit_3D_oarr: '{1, 0, 1, 0, 1, 0}, expecting '{1, 0, 1, 0, 1, 0}
# clone_logic_oarr: dim:1, incr:1, size:6, left:5, right:0, low:0, high:5 
# clone_logic_oarr: '{0, 1, 0, 1, 0, 1}, expecting '{0, 1, 0, 1, 0, 1}
# clone_logic_2D_oarr: '{0, 1, 0, 1, 0, 1}, expecting '{0, 1, 0, 1, 0, 1}
# clone_logic_3D_oarr: '{0, 1, 0, 1, 0, 1}, expecting '{0, 1, 0, 1, 0, 1}
# End time: 01:33:54 on Jan 06,2021, Elapsed time: 1:52:56
# Errors: 0, Warnings: 2
